CPU/Mcpu/Loongarch32_Lite.sim/sim_1/behav/xsim/simulate.log
Vivado Simulator 2018.3
Time resolution is 1 ps
WARNING: This core is supplied with a behavioral model. To model cycle-accurate behavior you must run timing simulation.
WARNING: This core is supplied with a behavioral model. To model cycle-accurate behavior you must run timing simulation.
--------------------------------------------------------------
[                   0]ns
reference: PC = 0x80000000, wb_rf_wnum = 0x0c, wb_rf_wdata = 0x0000000a
--------------------------------------------------------------
--------------------------------------------------------------
[                   0]ns
reference: PC = 0x80000014, wb_rf_wnum = 0x0d, wb_rf_wdata = 0x0000000a
--------------------------------------------------------------
--------------------------------------------------------------
[                   0]ns
reference: PC = 0x80000038, wb_rf_wnum = 0x0d, wb_rf_wdata = 0x00000014
--------------------------------------------------------------
--------------------------------------------------------------
[                1000]ns
reference: PC = 0x8000004c, wb_rf_wnum = 0x0e, wb_rf_wdata = 0x0000001e
--------------------------------------------------------------
--------------------------------------------------------------
[                1000]ns
reference: PC = 0x80000060, wb_rf_wnum = 0x0f, wb_rf_wdata = 0x0000001e
--------------------------------------------------------------
--------------------------------------------------------------
[                1000]ns
reference: PC = 0x80000084, wb_rf_wnum = 0x0c, wb_rf_wdata = 0x12345000
--------------------------------------------------------------
--------------------------------------------------------------
[                1000]ns
reference: PC = 0x800000a8, wb_rf_wnum = 0x0d, wb_rf_wdata = 0x00000000
--------------------------------------------------------------
--------------------------------------------------------------
[                1000]ns
reference: PC = 0x800000bc, wb_rf_wnum = 0x0d, wb_rf_wdata = 0x000000ff
--------------------------------------------------------------
--------------------------------------------------------------
[                1000]ns
reference: PC = 0x800000d0, wb_rf_wnum = 0x0e, wb_rf_wdata = 0x000000ff
--------------------------------------------------------------
--------------------------------------------------------------
[                1000]ns
reference: PC = 0x800000f4, wb_rf_wnum = 0x0f, wb_rf_wdata = 0x000000f0
--------------------------------------------------------------
--------------------------------------------------------------
[                1000]ns
reference: PC = 0x80000108, wb_rf_wnum = 0x10, wb_rf_wdata = 0x000000f0
--------------------------------------------------------------
--------------------------------------------------------------
[                2000]ns
reference: PC = 0x8000012c, wb_rf_wnum = 0x11, wb_rf_wdata = 0x00000033
--------------------------------------------------------------
--------------------------------------------------------------
[                2000]ns
reference: PC = 0x80000138, wb_rf_wnum = 0x12, wb_rf_wdata = 0x00000055
--------------------------------------------------------------
--------------------------------------------------------------
[                2000]ns
reference: PC = 0x80000144, wb_rf_wnum = 0x13, wb_rf_wdata = 0x00000033
--------------------------------------------------------------
--------------------------------------------------------------
[                2000]ns
reference: PC = 0x80000158, wb_rf_wnum = 0x14, wb_rf_wdata = 0x00000077
--------------------------------------------------------------
--------------------------------------------------------------
[                2000]ns
reference: PC = 0x80000174, wb_rf_wnum = 0x13, wb_rf_wdata = 0x00000066
--------------------------------------------------------------
--------------------------------------------------------------
[                2000]ns
reference: PC = 0x80000188, wb_rf_wnum = 0x14, wb_rf_wdata = 0x00000066
--------------------------------------------------------------
--------------------------------------------------------------
[                2000]ns
reference: PC = 0x800001a4, wb_rf_wnum = 0x0c, wb_rf_wdata = 0x00000100
--------------------------------------------------------------
--------------------------------------------------------------
[                2000]ns
reference: PC = 0x800001b0, wb_rf_wnum = 0x0d, wb_rf_wdata = 0x00000004
--------------------------------------------------------------
--------------------------------------------------------------
[                2000]ns
reference: PC = 0x800001bc, wb_rf_wnum = 0x0e, wb_rf_wdata = 0x00000000
--------------------------------------------------------------
--------------------------------------------------------------
[                2000]ns
reference: PC = 0x800001d0, wb_rf_wnum = 0x0f, wb_rf_wdata = 0x00000010
--------------------------------------------------------------
--------------------------------------------------------------
[                3000]ns
reference: PC = 0x800001ec, wb_rf_wnum = 0x0c, wb_rf_wdata = 0x0000000a
--------------------------------------------------------------
--------------------------------------------------------------
[                3000]ns
reference: PC = 0x800001f8, wb_rf_wnum = 0x0d, wb_rf_wdata = 0x00000000
--------------------------------------------------------------
--------------------------------------------------------------
[                3000]ns
reference: PC = 0x8000020c, wb_rf_wnum = 0x0e, wb_rf_wdata = 0x00000001
--------------------------------------------------------------
--------------------------------------------------------------
[                3000]ns
reference: PC = 0x80000228, wb_rf_wnum = 0x0d, wb_rf_wdata = 0x00000000
--------------------------------------------------------------
--------------------------------------------------------------
[                3000]ns
reference: PC = 0x8000024c, wb_rf_wnum = 0x0c, wb_rf_wdata = 0x8000024c
--------------------------------------------------------------
--------------------------------------------------------------
[                3000]ns
reference: PC = 0x80000268, wb_rf_wnum = 0x17, wb_rf_wdata = 0x00000100
--------------------------------------------------------------
--------------------------------------------------------------
[                3000]ns
reference: PC = 0x80000274, wb_rf_wnum = 0x0c, wb_rf_wdata = 0x12345000
--------------------------------------------------------------
--------------------------------------------------------------
[                3000]ns
reference: PC = 0x80000280, wb_rf_wnum = 0x0c, wb_rf_wdata = 0x8000067c
--------------------------------------------------------------
--------------------------------------------------------------
[                3000]ns
reference: PC = 0x800002a0, wb_rf_wnum = 0x0d, wb_rf_wdata = 0x12345000
--------------------------------------------------------------
--------------------------------------------------------------
[                4000]ns
reference: PC = 0x800002c4, wb_rf_wnum = 0x0e, wb_rf_wdata = 0x0000008f
--------------------------------------------------------------
--------------------------------------------------------------
[                4000]ns
reference: PC = 0x800002e4, wb_rf_wnum = 0x0f, wb_rf_wdata = 0x00000001
--------------------------------------------------------------
--------------------------------------------------------------
[                4000]ns
reference: PC = 0x800002f8, wb_rf_wnum = 0x0c, wb_rf_wdata = 0x00000001
--------------------------------------------------------------
--------------------------------------------------------------
[                4000]ns
reference: PC = 0x80000304, wb_rf_wnum = 0x0d, wb_rf_wdata = 0x00000001
--------------------------------------------------------------
--------------------------------------------------------------
[                4000]ns
reference: PC = 0x80000320, wb_rf_wnum = 0x0d, wb_rf_wdata = 0x00000002
--------------------------------------------------------------
--------------------------------------------------------------
[                4000]ns
reference: PC = 0x8000033c, wb_rf_wnum = 0x0c, wb_rf_wdata = 0xffffffff
--------------------------------------------------------------
--------------------------------------------------------------
[                4000]ns
reference: PC = 0x80000348, wb_rf_wnum = 0x0d, wb_rf_wdata = 0x00000001
--------------------------------------------------------------
--------------------------------------------------------------
[                4000]ns
reference: PC = 0x80000368, wb_rf_wnum = 0x01, wb_rf_wdata = 0x00000000
--------------------------------------------------------------
