CPU/Mcpu/Loongarch32_Lite.sim/sim_1/behav/xsim/simulate.log
Vivado Simulator 2018.3
Time resolution is 1 ps
WARNING: This core is supplied with a behavioral model. To model cycle-accurate behavior you must run timing simulation.
WARNING: This core is supplied with a behavioral model. To model cycle-accurate behavior you must run timing simulation.
Warning: [Unisim MMCME2_ADV-20] Input CLKIN1 period and attribute CLKIN1_PERIOD are not same. Instance tb_Loongarch32_Lite_FullSyS.SoC.clocking0.inst.mmcm_adv_inst 
--------------------------------------------------------------
[             1310000]ns
reference: PC = 0x80000000, wb_rf_wnum = 0x0c, wb_rf_wdata = 0x00000001
--------------------------------------------------------------
--------------------------------------------------------------
[             1350000]ns
reference: PC = 0x80000004, wb_rf_wnum = 0x0d, wb_rf_wdata = 0x00000001
--------------------------------------------------------------
--------------------------------------------------------------
[             1390000]ns
reference: PC = 0x80000008, wb_rf_wnum = 0x04, wb_rf_wdata = 0x80400000
--------------------------------------------------------------
--------------------------------------------------------------
[             1430000]ns
reference: PC = 0x8000000c, wb_rf_wnum = 0x05, wb_rf_wdata = 0x80400100
--------------------------------------------------------------
--------------------------------------------------------------
[             1470000]ns
reference: PC = 0x80000010, wb_rf_wnum = 0x0e, wb_rf_wdata = 0x00000002
--------------------------------------------------------------
--------------------------------------------------------------
[             1510000]ns
reference: PC = 0x80000014, wb_rf_wnum = 0x0c, wb_rf_wdata = 0x00000001
--------------------------------------------------------------
--------------------------------------------------------------
[             1550000]ns
reference: PC = 0x80000018, wb_rf_wnum = 0x0d, wb_rf_wdata = 0x00000002
--------------------------------------------------------------
--------------------------------------------------------------
[             1630000]ns
reference: PC = 0x80000020, wb_rf_wnum = 0x0f, wb_rf_wdata = 0x00000002
--------------------------------------------------------------
--------------------------------------------------------------
[             1750000]ns
reference: PC = 0x80000028, wb_rf_wnum = 0x04, wb_rf_wdata = 0x80400004
--------------------------------------------------------------
--------------------------------------------------------------
[             1870000]ns
reference: PC = 0x80000010, wb_rf_wnum = 0x0e, wb_rf_wdata = 0x00000003
--------------------------------------------------------------
--------------------------------------------------------------
[             1910000]ns
reference: PC = 0x80000014, wb_rf_wnum = 0x0c, wb_rf_wdata = 0x00000002
--------------------------------------------------------------
--------------------------------------------------------------
[             1950000]ns
reference: PC = 0x80000018, wb_rf_wnum = 0x0d, wb_rf_wdata = 0x00000003
--------------------------------------------------------------
--------------------------------------------------------------
[             2030000]ns
reference: PC = 0x80000020, wb_rf_wnum = 0x0f, wb_rf_wdata = 0x00000003
--------------------------------------------------------------
--------------------------------------------------------------
[             2150000]ns
reference: PC = 0x80000028, wb_rf_wnum = 0x04, wb_rf_wdata = 0x80400008
--------------------------------------------------------------
--------------------------------------------------------------
[             2270000]ns
reference: PC = 0x80000010, wb_rf_wnum = 0x0e, wb_rf_wdata = 0x00000005
--------------------------------------------------------------
--------------------------------------------------------------
[             2310000]ns
reference: PC = 0x80000014, wb_rf_wnum = 0x0c, wb_rf_wdata = 0x00000003
--------------------------------------------------------------
--------------------------------------------------------------
[             2350000]ns
reference: PC = 0x80000018, wb_rf_wnum = 0x0d, wb_rf_wdata = 0x00000005
--------------------------------------------------------------
--------------------------------------------------------------
[             2430000]ns
reference: PC = 0x80000020, wb_rf_wnum = 0x0f, wb_rf_wdata = 0x00000005
--------------------------------------------------------------
--------------------------------------------------------------
[             2550000]ns
reference: PC = 0x80000028, wb_rf_wnum = 0x04, wb_rf_wdata = 0x8040000c
--------------------------------------------------------------
--------------------------------------------------------------
[             2670000]ns
reference: PC = 0x80000010, wb_rf_wnum = 0x0e, wb_rf_wdata = 0x00000008
--------------------------------------------------------------
--------------------------------------------------------------
[             2710000]ns
reference: PC = 0x80000014, wb_rf_wnum = 0x0c, wb_rf_wdata = 0x00000005
--------------------------------------------------------------
--------------------------------------------------------------
[             2750000]ns
reference: PC = 0x80000018, wb_rf_wnum = 0x0d, wb_rf_wdata = 0x00000008
--------------------------------------------------------------
--------------------------------------------------------------
[             2830000]ns
reference: PC = 0x80000020, wb_rf_wnum = 0x0f, wb_rf_wdata = 0x00000008
--------------------------------------------------------------
--------------------------------------------------------------
[             2950000]ns
reference: PC = 0x80000028, wb_rf_wnum = 0x04, wb_rf_wdata = 0x80400010
--------------------------------------------------------------
--------------------------------------------------------------
[             3070000]ns
reference: PC = 0x80000010, wb_rf_wnum = 0x0e, wb_rf_wdata = 0x0000000d
--------------------------------------------------------------
--------------------------------------------------------------
[             3110000]ns
reference: PC = 0x80000014, wb_rf_wnum = 0x0c, wb_rf_wdata = 0x00000008
--------------------------------------------------------------
--------------------------------------------------------------
[             3150000]ns
reference: PC = 0x80000018, wb_rf_wnum = 0x0d, wb_rf_wdata = 0x0000000d
--------------------------------------------------------------
--------------------------------------------------------------
[             3230000]ns
reference: PC = 0x80000020, wb_rf_wnum = 0x0f, wb_rf_wdata = 0x0000000d
--------------------------------------------------------------
--------------------------------------------------------------
[             3350000]ns
reference: PC = 0x80000028, wb_rf_wnum = 0x04, wb_rf_wdata = 0x80400014
--------------------------------------------------------------
--------------------------------------------------------------
[             3470000]ns
reference: PC = 0x80000010, wb_rf_wnum = 0x0e, wb_rf_wdata = 0x00000015
--------------------------------------------------------------
--------------------------------------------------------------
[             3510000]ns
reference: PC = 0x80000014, wb_rf_wnum = 0x0c, wb_rf_wdata = 0x0000000d
--------------------------------------------------------------
--------------------------------------------------------------
[             3550000]ns
reference: PC = 0x80000018, wb_rf_wnum = 0x0d, wb_rf_wdata = 0x00000015
--------------------------------------------------------------
--------------------------------------------------------------
[             3630000]ns
reference: PC = 0x80000020, wb_rf_wnum = 0x0f, wb_rf_wdata = 0x00000015
--------------------------------------------------------------
--------------------------------------------------------------
[             3750000]ns
reference: PC = 0x80000028, wb_rf_wnum = 0x04, wb_rf_wdata = 0x80400018
--------------------------------------------------------------
--------------------------------------------------------------
[             3870000]ns
reference: PC = 0x80000010, wb_rf_wnum = 0x0e, wb_rf_wdata = 0x00000022
--------------------------------------------------------------
--------------------------------------------------------------
[             3910000]ns
reference: PC = 0x80000014, wb_rf_wnum = 0x0c, wb_rf_wdata = 0x00000015
--------------------------------------------------------------
--------------------------------------------------------------
[             3950000]ns
reference: PC = 0x80000018, wb_rf_wnum = 0x0d, wb_rf_wdata = 0x00000022
--------------------------------------------------------------
--------------------------------------------------------------
[             4030000]ns
reference: PC = 0x80000020, wb_rf_wnum = 0x0f, wb_rf_wdata = 0x00000022
--------------------------------------------------------------
--------------------------------------------------------------
[             4150000]ns
reference: PC = 0x80000028, wb_rf_wnum = 0x04, wb_rf_wdata = 0x8040001c
--------------------------------------------------------------
--------------------------------------------------------------
[             4270000]ns
reference: PC = 0x80000010, wb_rf_wnum = 0x0e, wb_rf_wdata = 0x00000037
--------------------------------------------------------------
--------------------------------------------------------------
[             4310000]ns
reference: PC = 0x80000014, wb_rf_wnum = 0x0c, wb_rf_wdata = 0x00000022
--------------------------------------------------------------
--------------------------------------------------------------
[             4350000]ns
reference: PC = 0x80000018, wb_rf_wnum = 0x0d, wb_rf_wdata = 0x00000037
--------------------------------------------------------------
--------------------------------------------------------------
[             4430000]ns
reference: PC = 0x80000020, wb_rf_wnum = 0x0f, wb_rf_wdata = 0x00000037
--------------------------------------------------------------
--------------------------------------------------------------
[             4550000]ns
reference: PC = 0x80000028, wb_rf_wnum = 0x04, wb_rf_wdata = 0x80400020
--------------------------------------------------------------
--------------------------------------------------------------
[             4670000]ns
reference: PC = 0x80000010, wb_rf_wnum = 0x0e, wb_rf_wdata = 0x00000059
--------------------------------------------------------------
--------------------------------------------------------------
[             4710000]ns
reference: PC = 0x80000014, wb_rf_wnum = 0x0c, wb_rf_wdata = 0x00000037
--------------------------------------------------------------
--------------------------------------------------------------
[             4750000]ns
reference: PC = 0x80000018, wb_rf_wnum = 0x0d, wb_rf_wdata = 0x00000059
--------------------------------------------------------------
--------------------------------------------------------------
[             4830000]ns
reference: PC = 0x80000020, wb_rf_wnum = 0x0f, wb_rf_wdata = 0x00000059
--------------------------------------------------------------
--------------------------------------------------------------
[             4950000]ns
reference: PC = 0x80000028, wb_rf_wnum = 0x04, wb_rf_wdata = 0x80400024
--------------------------------------------------------------
--------------------------------------------------------------
[             5070000]ns
reference: PC = 0x80000010, wb_rf_wnum = 0x0e, wb_rf_wdata = 0x00000090
--------------------------------------------------------------
--------------------------------------------------------------
[             5110000]ns
reference: PC = 0x80000014, wb_rf_wnum = 0x0c, wb_rf_wdata = 0x00000059
--------------------------------------------------------------
--------------------------------------------------------------
[             5150000]ns
reference: PC = 0x80000018, wb_rf_wnum = 0x0d, wb_rf_wdata = 0x00000090
--------------------------------------------------------------
--------------------------------------------------------------
[             5230000]ns
reference: PC = 0x80000020, wb_rf_wnum = 0x0f, wb_rf_wdata = 0x00000090
--------------------------------------------------------------
--------------------------------------------------------------
[             5350000]ns
reference: PC = 0x80000028, wb_rf_wnum = 0x04, wb_rf_wdata = 0x80400028
--------------------------------------------------------------
--------------------------------------------------------------
[             5470000]ns
reference: PC = 0x80000010, wb_rf_wnum = 0x0e, wb_rf_wdata = 0x000000e9
--------------------------------------------------------------
--------------------------------------------------------------
[             5510000]ns
reference: PC = 0x80000014, wb_rf_wnum = 0x0c, wb_rf_wdata = 0x00000090
--------------------------------------------------------------
--------------------------------------------------------------
[             5550000]ns
reference: PC = 0x80000018, wb_rf_wnum = 0x0d, wb_rf_wdata = 0x000000e9
--------------------------------------------------------------
--------------------------------------------------------------
[             5630000]ns
reference: PC = 0x80000020, wb_rf_wnum = 0x0f, wb_rf_wdata = 0x000000e9
--------------------------------------------------------------
--------------------------------------------------------------
[             5750000]ns
reference: PC = 0x80000028, wb_rf_wnum = 0x04, wb_rf_wdata = 0x8040002c
--------------------------------------------------------------
--------------------------------------------------------------
[             5870000]ns
reference: PC = 0x80000010, wb_rf_wnum = 0x0e, wb_rf_wdata = 0x00000179
--------------------------------------------------------------
--------------------------------------------------------------
[             5910000]ns
reference: PC = 0x80000014, wb_rf_wnum = 0x0c, wb_rf_wdata = 0x000000e9
--------------------------------------------------------------
--------------------------------------------------------------
[             5950000]ns
reference: PC = 0x80000018, wb_rf_wnum = 0x0d, wb_rf_wdata = 0x00000179
--------------------------------------------------------------
--------------------------------------------------------------
[             6030000]ns
reference: PC = 0x80000020, wb_rf_wnum = 0x0f, wb_rf_wdata = 0x00000179
--------------------------------------------------------------
--------------------------------------------------------------
[             6150000]ns
reference: PC = 0x80000028, wb_rf_wnum = 0x04, wb_rf_wdata = 0x80400030
--------------------------------------------------------------
--------------------------------------------------------------
[             6270000]ns
reference: PC = 0x80000010, wb_rf_wnum = 0x0e, wb_rf_wdata = 0x00000262
--------------------------------------------------------------
--------------------------------------------------------------
[             6310000]ns
reference: PC = 0x80000014, wb_rf_wnum = 0x0c, wb_rf_wdata = 0x00000179
--------------------------------------------------------------
--------------------------------------------------------------
[             6350000]ns
reference: PC = 0x80000018, wb_rf_wnum = 0x0d, wb_rf_wdata = 0x00000262
--------------------------------------------------------------
--------------------------------------------------------------
[             6430000]ns
reference: PC = 0x80000020, wb_rf_wnum = 0x0f, wb_rf_wdata = 0x00000262
--------------------------------------------------------------
--------------------------------------------------------------
[             6550000]ns
reference: PC = 0x80000028, wb_rf_wnum = 0x04, wb_rf_wdata = 0x80400034
--------------------------------------------------------------
--------------------------------------------------------------
[             6670000]ns
reference: PC = 0x80000010, wb_rf_wnum = 0x0e, wb_rf_wdata = 0x000003db
--------------------------------------------------------------
--------------------------------------------------------------
[             6710000]ns
reference: PC = 0x80000014, wb_rf_wnum = 0x0c, wb_rf_wdata = 0x00000262
--------------------------------------------------------------
--------------------------------------------------------------
[             6750000]ns
reference: PC = 0x80000018, wb_rf_wnum = 0x0d, wb_rf_wdata = 0x000003db
--------------------------------------------------------------
--------------------------------------------------------------
[             6830000]ns
reference: PC = 0x80000020, wb_rf_wnum = 0x0f, wb_rf_wdata = 0x000003db
--------------------------------------------------------------
--------------------------------------------------------------
[             6950000]ns
reference: PC = 0x80000028, wb_rf_wnum = 0x04, wb_rf_wdata = 0x80400038
--------------------------------------------------------------
--------------------------------------------------------------
[             7070000]ns
reference: PC = 0x80000010, wb_rf_wnum = 0x0e, wb_rf_wdata = 0x0000063d
--------------------------------------------------------------
--------------------------------------------------------------
[             7110000]ns
reference: PC = 0x80000014, wb_rf_wnum = 0x0c, wb_rf_wdata = 0x000003db
--------------------------------------------------------------
--------------------------------------------------------------
[             7150000]ns
reference: PC = 0x80000018, wb_rf_wnum = 0x0d, wb_rf_wdata = 0x0000063d
--------------------------------------------------------------
--------------------------------------------------------------
[             7230000]ns
reference: PC = 0x80000020, wb_rf_wnum = 0x0f, wb_rf_wdata = 0x0000063d
--------------------------------------------------------------
--------------------------------------------------------------
[             7350000]ns
reference: PC = 0x80000028, wb_rf_wnum = 0x04, wb_rf_wdata = 0x8040003c
--------------------------------------------------------------
--------------------------------------------------------------
[             7470000]ns
reference: PC = 0x80000010, wb_rf_wnum = 0x0e, wb_rf_wdata = 0x00000a18
--------------------------------------------------------------
--------------------------------------------------------------
[             7510000]ns
reference: PC = 0x80000014, wb_rf_wnum = 0x0c, wb_rf_wdata = 0x0000063d
--------------------------------------------------------------
--------------------------------------------------------------
[             7550000]ns
reference: PC = 0x80000018, wb_rf_wnum = 0x0d, wb_rf_wdata = 0x00000a18
--------------------------------------------------------------
--------------------------------------------------------------
[             7630000]ns
reference: PC = 0x80000020, wb_rf_wnum = 0x0f, wb_rf_wdata = 0x00000a18
--------------------------------------------------------------
--------------------------------------------------------------
[             7750000]ns
reference: PC = 0x80000028, wb_rf_wnum = 0x04, wb_rf_wdata = 0x80400040
--------------------------------------------------------------
--------------------------------------------------------------
[             7870000]ns
reference: PC = 0x80000010, wb_rf_wnum = 0x0e, wb_rf_wdata = 0x00001055
--------------------------------------------------------------
--------------------------------------------------------------
[             7910000]ns
reference: PC = 0x80000014, wb_rf_wnum = 0x0c, wb_rf_wdata = 0x00000a18
--------------------------------------------------------------
--------------------------------------------------------------
[             7950000]ns
reference: PC = 0x80000018, wb_rf_wnum = 0x0d, wb_rf_wdata = 0x00001055
--------------------------------------------------------------
--------------------------------------------------------------
[             8030000]ns
reference: PC = 0x80000020, wb_rf_wnum = 0x0f, wb_rf_wdata = 0x00001055
--------------------------------------------------------------
--------------------------------------------------------------
[             8150000]ns
reference: PC = 0x80000028, wb_rf_wnum = 0x04, wb_rf_wdata = 0x80400044
--------------------------------------------------------------
--------------------------------------------------------------
[             8270000]ns
reference: PC = 0x80000010, wb_rf_wnum = 0x0e, wb_rf_wdata = 0x00001a6d
--------------------------------------------------------------
--------------------------------------------------------------
[             8310000]ns
reference: PC = 0x80000014, wb_rf_wnum = 0x0c, wb_rf_wdata = 0x00001055
--------------------------------------------------------------
--------------------------------------------------------------
[             8350000]ns
reference: PC = 0x80000018, wb_rf_wnum = 0x0d, wb_rf_wdata = 0x00001a6d
--------------------------------------------------------------
--------------------------------------------------------------
[             8430000]ns
reference: PC = 0x80000020, wb_rf_wnum = 0x0f, wb_rf_wdata = 0x00001a6d
--------------------------------------------------------------
--------------------------------------------------------------
[             8550000]ns
reference: PC = 0x80000028, wb_rf_wnum = 0x04, wb_rf_wdata = 0x80400048
--------------------------------------------------------------
--------------------------------------------------------------
[             8670000]ns
reference: PC = 0x80000010, wb_rf_wnum = 0x0e, wb_rf_wdata = 0x00002ac2
--------------------------------------------------------------
--------------------------------------------------------------
[             8710000]ns
reference: PC = 0x80000014, wb_rf_wnum = 0x0c, wb_rf_wdata = 0x00001a6d
--------------------------------------------------------------
--------------------------------------------------------------
[             8750000]ns
reference: PC = 0x80000018, wb_rf_wnum = 0x0d, wb_rf_wdata = 0x00002ac2
--------------------------------------------------------------
--------------------------------------------------------------
[             8830000]ns
reference: PC = 0x80000020, wb_rf_wnum = 0x0f, wb_rf_wdata = 0x00002ac2
--------------------------------------------------------------
--------------------------------------------------------------
[             8950000]ns
reference: PC = 0x80000028, wb_rf_wnum = 0x04, wb_rf_wdata = 0x8040004c
--------------------------------------------------------------
--------------------------------------------------------------
[             9070000]ns
reference: PC = 0x80000010, wb_rf_wnum = 0x0e, wb_rf_wdata = 0x0000452f
--------------------------------------------------------------
--------------------------------------------------------------
[             9110000]ns
reference: PC = 0x80000014, wb_rf_wnum = 0x0c, wb_rf_wdata = 0x00002ac2
--------------------------------------------------------------
--------------------------------------------------------------
[             9150000]ns
reference: PC = 0x80000018, wb_rf_wnum = 0x0d, wb_rf_wdata = 0x0000452f
--------------------------------------------------------------
--------------------------------------------------------------
[             9230000]ns
reference: PC = 0x80000020, wb_rf_wnum = 0x0f, wb_rf_wdata = 0x0000452f
--------------------------------------------------------------
--------------------------------------------------------------
[             9350000]ns
reference: PC = 0x80000028, wb_rf_wnum = 0x04, wb_rf_wdata = 0x80400050
--------------------------------------------------------------
--------------------------------------------------------------
[             9470000]ns
reference: PC = 0x80000010, wb_rf_wnum = 0x0e, wb_rf_wdata = 0x00006ff1
--------------------------------------------------------------
--------------------------------------------------------------
[             9510000]ns
reference: PC = 0x80000014, wb_rf_wnum = 0x0c, wb_rf_wdata = 0x0000452f
--------------------------------------------------------------
--------------------------------------------------------------
[             9550000]ns
reference: PC = 0x80000018, wb_rf_wnum = 0x0d, wb_rf_wdata = 0x00006ff1
--------------------------------------------------------------
--------------------------------------------------------------
[             9630000]ns
reference: PC = 0x80000020, wb_rf_wnum = 0x0f, wb_rf_wdata = 0x00006ff1
--------------------------------------------------------------
--------------------------------------------------------------
[             9750000]ns
reference: PC = 0x80000028, wb_rf_wnum = 0x04, wb_rf_wdata = 0x80400054
--------------------------------------------------------------
--------------------------------------------------------------
[             9870000]ns
reference: PC = 0x80000010, wb_rf_wnum = 0x0e, wb_rf_wdata = 0x0000b520
--------------------------------------------------------------
--------------------------------------------------------------
[             9910000]ns
reference: PC = 0x80000014, wb_rf_wnum = 0x0c, wb_rf_wdata = 0x00006ff1
--------------------------------------------------------------
--------------------------------------------------------------
[             9950000]ns
reference: PC = 0x80000018, wb_rf_wnum = 0x0d, wb_rf_wdata = 0x0000b520
--------------------------------------------------------------
--------------------------------------------------------------
[            10030000]ns
reference: PC = 0x80000020, wb_rf_wnum = 0x0f, wb_rf_wdata = 0x0000b520
--------------------------------------------------------------
--------------------------------------------------------------
[            10150000]ns
reference: PC = 0x80000028, wb_rf_wnum = 0x04, wb_rf_wdata = 0x80400058
--------------------------------------------------------------
--------------------------------------------------------------
[            10270000]ns
reference: PC = 0x80000010, wb_rf_wnum = 0x0e, wb_rf_wdata = 0x00012511
--------------------------------------------------------------
--------------------------------------------------------------
[            10310000]ns
reference: PC = 0x80000014, wb_rf_wnum = 0x0c, wb_rf_wdata = 0x0000b520
--------------------------------------------------------------
--------------------------------------------------------------
[            10350000]ns
reference: PC = 0x80000018, wb_rf_wnum = 0x0d, wb_rf_wdata = 0x00012511
--------------------------------------------------------------
--------------------------------------------------------------
[            10430000]ns
reference: PC = 0x80000020, wb_rf_wnum = 0x0f, wb_rf_wdata = 0x00012511
--------------------------------------------------------------
--------------------------------------------------------------
[            10550000]ns
reference: PC = 0x80000028, wb_rf_wnum = 0x04, wb_rf_wdata = 0x8040005c
--------------------------------------------------------------
--------------------------------------------------------------
[            10670000]ns
reference: PC = 0x80000010, wb_rf_wnum = 0x0e, wb_rf_wdata = 0x0001da31
--------------------------------------------------------------
--------------------------------------------------------------
[            10710000]ns
reference: PC = 0x80000014, wb_rf_wnum = 0x0c, wb_rf_wdata = 0x00012511
--------------------------------------------------------------
--------------------------------------------------------------
[            10750000]ns
reference: PC = 0x80000018, wb_rf_wnum = 0x0d, wb_rf_wdata = 0x0001da31
--------------------------------------------------------------
--------------------------------------------------------------
[            10830000]ns
reference: PC = 0x80000020, wb_rf_wnum = 0x0f, wb_rf_wdata = 0x0001da31
--------------------------------------------------------------
--------------------------------------------------------------
[            10950000]ns
reference: PC = 0x80000028, wb_rf_wnum = 0x04, wb_rf_wdata = 0x80400060
--------------------------------------------------------------
--------------------------------------------------------------
[            11070000]ns
reference: PC = 0x80000010, wb_rf_wnum = 0x0e, wb_rf_wdata = 0x0002ff42
--------------------------------------------------------------
--------------------------------------------------------------
[            11110000]ns
reference: PC = 0x80000014, wb_rf_wnum = 0x0c, wb_rf_wdata = 0x0001da31
--------------------------------------------------------------
--------------------------------------------------------------
[            11150000]ns
reference: PC = 0x80000018, wb_rf_wnum = 0x0d, wb_rf_wdata = 0x0002ff42
--------------------------------------------------------------
--------------------------------------------------------------
[            11230000]ns
reference: PC = 0x80000020, wb_rf_wnum = 0x0f, wb_rf_wdata = 0x0002ff42
--------------------------------------------------------------
--------------------------------------------------------------
[            11350000]ns
reference: PC = 0x80000028, wb_rf_wnum = 0x04, wb_rf_wdata = 0x80400064
--------------------------------------------------------------
--------------------------------------------------------------
[            11470000]ns
reference: PC = 0x80000010, wb_rf_wnum = 0x0e, wb_rf_wdata = 0x0004d973
--------------------------------------------------------------
--------------------------------------------------------------
[            11510000]ns
reference: PC = 0x80000014, wb_rf_wnum = 0x0c, wb_rf_wdata = 0x0002ff42
--------------------------------------------------------------
--------------------------------------------------------------
[            11550000]ns
reference: PC = 0x80000018, wb_rf_wnum = 0x0d, wb_rf_wdata = 0x0004d973
--------------------------------------------------------------
--------------------------------------------------------------
[            11630000]ns
reference: PC = 0x80000020, wb_rf_wnum = 0x0f, wb_rf_wdata = 0x0004d973
--------------------------------------------------------------
--------------------------------------------------------------
[            11750000]ns
reference: PC = 0x80000028, wb_rf_wnum = 0x04, wb_rf_wdata = 0x80400068
--------------------------------------------------------------
--------------------------------------------------------------
[            11870000]ns
reference: PC = 0x80000010, wb_rf_wnum = 0x0e, wb_rf_wdata = 0x0007d8b5
--------------------------------------------------------------
--------------------------------------------------------------
[            11910000]ns
reference: PC = 0x80000014, wb_rf_wnum = 0x0c, wb_rf_wdata = 0x0004d973
--------------------------------------------------------------
--------------------------------------------------------------
[            11950000]ns
reference: PC = 0x80000018, wb_rf_wnum = 0x0d, wb_rf_wdata = 0x0007d8b5
--------------------------------------------------------------
--------------------------------------------------------------
[            12030000]ns
reference: PC = 0x80000020, wb_rf_wnum = 0x0f, wb_rf_wdata = 0x0007d8b5
--------------------------------------------------------------
--------------------------------------------------------------
[            12150000]ns
reference: PC = 0x80000028, wb_rf_wnum = 0x04, wb_rf_wdata = 0x8040006c
--------------------------------------------------------------
--------------------------------------------------------------
[            12270000]ns
reference: PC = 0x80000010, wb_rf_wnum = 0x0e, wb_rf_wdata = 0x000cb228
--------------------------------------------------------------
--------------------------------------------------------------
[            12310000]ns
reference: PC = 0x80000014, wb_rf_wnum = 0x0c, wb_rf_wdata = 0x0007d8b5
--------------------------------------------------------------
--------------------------------------------------------------
[            12350000]ns
reference: PC = 0x80000018, wb_rf_wnum = 0x0d, wb_rf_wdata = 0x000cb228
--------------------------------------------------------------
--------------------------------------------------------------
[            12430000]ns
reference: PC = 0x80000020, wb_rf_wnum = 0x0f, wb_rf_wdata = 0x000cb228
--------------------------------------------------------------
--------------------------------------------------------------
[            12550000]ns
reference: PC = 0x80000028, wb_rf_wnum = 0x04, wb_rf_wdata = 0x80400070
--------------------------------------------------------------
--------------------------------------------------------------
[            12670000]ns
reference: PC = 0x80000010, wb_rf_wnum = 0x0e, wb_rf_wdata = 0x00148add
--------------------------------------------------------------
--------------------------------------------------------------
[            12710000]ns
reference: PC = 0x80000014, wb_rf_wnum = 0x0c, wb_rf_wdata = 0x000cb228
--------------------------------------------------------------
--------------------------------------------------------------
[            12750000]ns
reference: PC = 0x80000018, wb_rf_wnum = 0x0d, wb_rf_wdata = 0x00148add
--------------------------------------------------------------
--------------------------------------------------------------
[            12830000]ns
reference: PC = 0x80000020, wb_rf_wnum = 0x0f, wb_rf_wdata = 0x00148add
--------------------------------------------------------------
--------------------------------------------------------------
[            12950000]ns
reference: PC = 0x80000028, wb_rf_wnum = 0x04, wb_rf_wdata = 0x80400074
--------------------------------------------------------------
--------------------------------------------------------------
[            13070000]ns
reference: PC = 0x80000010, wb_rf_wnum = 0x0e, wb_rf_wdata = 0x00213d05
--------------------------------------------------------------
--------------------------------------------------------------
[            13110000]ns
reference: PC = 0x80000014, wb_rf_wnum = 0x0c, wb_rf_wdata = 0x00148add
--------------------------------------------------------------
--------------------------------------------------------------
[            13150000]ns
reference: PC = 0x80000018, wb_rf_wnum = 0x0d, wb_rf_wdata = 0x00213d05
--------------------------------------------------------------
--------------------------------------------------------------
[            13230000]ns
reference: PC = 0x80000020, wb_rf_wnum = 0x0f, wb_rf_wdata = 0x00213d05
--------------------------------------------------------------
--------------------------------------------------------------
[            13350000]ns
reference: PC = 0x80000028, wb_rf_wnum = 0x04, wb_rf_wdata = 0x80400078
--------------------------------------------------------------
--------------------------------------------------------------
[            13470000]ns
reference: PC = 0x80000010, wb_rf_wnum = 0x0e, wb_rf_wdata = 0x0035c7e2
--------------------------------------------------------------
--------------------------------------------------------------
[            13510000]ns
reference: PC = 0x80000014, wb_rf_wnum = 0x0c, wb_rf_wdata = 0x00213d05
--------------------------------------------------------------
--------------------------------------------------------------
[            13550000]ns
reference: PC = 0x80000018, wb_rf_wnum = 0x0d, wb_rf_wdata = 0x0035c7e2
--------------------------------------------------------------
--------------------------------------------------------------
[            13630000]ns
reference: PC = 0x80000020, wb_rf_wnum = 0x0f, wb_rf_wdata = 0x0035c7e2
--------------------------------------------------------------
--------------------------------------------------------------
[            13750000]ns
reference: PC = 0x80000028, wb_rf_wnum = 0x04, wb_rf_wdata = 0x8040007c
--------------------------------------------------------------
--------------------------------------------------------------
[            13870000]ns
reference: PC = 0x80000010, wb_rf_wnum = 0x0e, wb_rf_wdata = 0x005704e7
--------------------------------------------------------------
--------------------------------------------------------------
[            13910000]ns
reference: PC = 0x80000014, wb_rf_wnum = 0x0c, wb_rf_wdata = 0x0035c7e2
--------------------------------------------------------------
--------------------------------------------------------------
[            13950000]ns
reference: PC = 0x80000018, wb_rf_wnum = 0x0d, wb_rf_wdata = 0x005704e7
--------------------------------------------------------------
--------------------------------------------------------------
[            14030000]ns
reference: PC = 0x80000020, wb_rf_wnum = 0x0f, wb_rf_wdata = 0x005704e7
--------------------------------------------------------------
--------------------------------------------------------------
[            14150000]ns
reference: PC = 0x80000028, wb_rf_wnum = 0x04, wb_rf_wdata = 0x80400080
--------------------------------------------------------------
--------------------------------------------------------------
[            14270000]ns
reference: PC = 0x80000010, wb_rf_wnum = 0x0e, wb_rf_wdata = 0x008cccc9
--------------------------------------------------------------
--------------------------------------------------------------
[            14310000]ns
reference: PC = 0x80000014, wb_rf_wnum = 0x0c, wb_rf_wdata = 0x005704e7
--------------------------------------------------------------
--------------------------------------------------------------
[            14350000]ns
reference: PC = 0x80000018, wb_rf_wnum = 0x0d, wb_rf_wdata = 0x008cccc9
--------------------------------------------------------------
--------------------------------------------------------------
[            14430000]ns
reference: PC = 0x80000020, wb_rf_wnum = 0x0f, wb_rf_wdata = 0x008cccc9
--------------------------------------------------------------
--------------------------------------------------------------
[            14550000]ns
reference: PC = 0x80000028, wb_rf_wnum = 0x04, wb_rf_wdata = 0x80400084
--------------------------------------------------------------
--------------------------------------------------------------
[            14670000]ns
reference: PC = 0x80000010, wb_rf_wnum = 0x0e, wb_rf_wdata = 0x00e3d1b0
--------------------------------------------------------------
--------------------------------------------------------------
[            14710000]ns
reference: PC = 0x80000014, wb_rf_wnum = 0x0c, wb_rf_wdata = 0x008cccc9
--------------------------------------------------------------
--------------------------------------------------------------
[            14750000]ns
reference: PC = 0x80000018, wb_rf_wnum = 0x0d, wb_rf_wdata = 0x00e3d1b0
--------------------------------------------------------------
--------------------------------------------------------------
[            14830000]ns
reference: PC = 0x80000020, wb_rf_wnum = 0x0f, wb_rf_wdata = 0x00e3d1b0
--------------------------------------------------------------
--------------------------------------------------------------
[            14950000]ns
reference: PC = 0x80000028, wb_rf_wnum = 0x04, wb_rf_wdata = 0x80400088
--------------------------------------------------------------
--------------------------------------------------------------
[            15070000]ns
reference: PC = 0x80000010, wb_rf_wnum = 0x0e, wb_rf_wdata = 0x01709e79
--------------------------------------------------------------
--------------------------------------------------------------
[            15110000]ns
reference: PC = 0x80000014, wb_rf_wnum = 0x0c, wb_rf_wdata = 0x00e3d1b0
--------------------------------------------------------------
--------------------------------------------------------------
[            15150000]ns
reference: PC = 0x80000018, wb_rf_wnum = 0x0d, wb_rf_wdata = 0x01709e79
--------------------------------------------------------------
--------------------------------------------------------------
[            15230000]ns
reference: PC = 0x80000020, wb_rf_wnum = 0x0f, wb_rf_wdata = 0x01709e79
--------------------------------------------------------------
--------------------------------------------------------------
[            15350000]ns
reference: PC = 0x80000028, wb_rf_wnum = 0x04, wb_rf_wdata = 0x8040008c
--------------------------------------------------------------
--------------------------------------------------------------
[            15470000]ns
reference: PC = 0x80000010, wb_rf_wnum = 0x0e, wb_rf_wdata = 0x02547029
--------------------------------------------------------------
--------------------------------------------------------------
[            15510000]ns
reference: PC = 0x80000014, wb_rf_wnum = 0x0c, wb_rf_wdata = 0x01709e79
--------------------------------------------------------------
--------------------------------------------------------------
[            15550000]ns
reference: PC = 0x80000018, wb_rf_wnum = 0x0d, wb_rf_wdata = 0x02547029
--------------------------------------------------------------
--------------------------------------------------------------
[            15630000]ns
reference: PC = 0x80000020, wb_rf_wnum = 0x0f, wb_rf_wdata = 0x02547029
--------------------------------------------------------------
--------------------------------------------------------------
[            15750000]ns
reference: PC = 0x80000028, wb_rf_wnum = 0x04, wb_rf_wdata = 0x80400090
--------------------------------------------------------------
--------------------------------------------------------------
[            15870000]ns
reference: PC = 0x80000010, wb_rf_wnum = 0x0e, wb_rf_wdata = 0x03c50ea2
--------------------------------------------------------------
--------------------------------------------------------------
[            15910000]ns
